Atividade 2/regfile.vcd
$date
  Wed Oct 06 23:38:24 2021
$end
$version
  GHDL v0
$end
$timescale
  1 fs
$end
$var reg 1 ! clock_in $end
$var reg 1 " reset_in $end
$var reg 1 # regwrite_in $end
$var reg 2 $ rr1_in[1:0] $end
$var reg 2 % rr2_in[1:0] $end
$var reg 2 & wr_in[1:0] $end
$var reg 4 ' d_in[3:0] $end
$var reg 4 ( q1_out[3:0] $end
$var reg 4 ) q2_out[3:0] $end
$var reg 1 * simulando $end
$scope module dut $end
$var reg 1 + clock $end
$var reg 1 , reset $end
$var reg 1 - regwrite $end
$var reg 2 . rr1[1:0] $end
$var reg 2 / rr2[1:0] $end
$var reg 2 0 wr[1:0] $end
$var reg 4 1 d[3:0] $end
$var reg 4 2 q1[3:0] $end
$var reg 4 3 q2[3:0] $end
$comment saidas is not handled $end
$var reg 4 4 loadvector[0:3] $end
$comment dvector is not handled $end
$var integer 32 5 int_wr $end
$var integer 32 6 int_rr1 $end
$var integer 32 7 int_rr2 $end
$scope module cria_regs(0) $end
$scope module regs $end
$var reg 1 8 clock $end
$var reg 1 9 reset $end
$var reg 1 : load $end
$var reg 4 ; d[3:0] $end
$var reg 4 < q[3:0] $end
$upscope $end
$upscope $end
$scope module cria_regs(1) $end
$scope module regs $end
$var reg 1 = clock $end
$var reg 1 > reset $end
$var reg 1 ? load $end
$var reg 4 @ d[3:0] $end
$var reg 4 A q[3:0] $end
$upscope $end
$upscope $end
$scope module cria_regs(2) $end
$scope module regs $end
$var reg 1 B clock $end
$var reg 1 C reset $end
$var reg 1 D load $end
$var reg 4 E d[3:0] $end
$var reg 4 F q[3:0] $end
$upscope $end
$upscope $end
$scope module cria_regs(3) $end
$scope module regs $end
$var reg 1 G clock $end
$var reg 1 H reset $end
$var reg 1 I load $end
$var reg 4 J d[3:0] $end
$var reg 4 K q[3:0] $end
$upscope $end
$upscope $end
$upscope $end
$enddefinitions $end
#0
0!
1"
0#
b00 $
b10 %
b00 &
b0001 '
b0000 (
b0000 )
1*
0+
1,
0-
b00 .
b10 /
b00 0
b0001 1
b0000 2
b0000 3
b0000 4
b0 5
b0 6
b10 7
08
19
0:
b0000 ;
b0000 <
0=
1>
0?
b0000 @
b0000 A
0B
1C
0D
b0000 E
b0000 F
0G
1H
0I
b0000 J
b0000 K
#1000000
1!
1+
18
b0001 ;
1=
1B
1G
#2000000
0!
0+
08
0=
0B
0G
#3000000
1!
1+
18
1=
1B
1G
#4000000
0!
0+
08
0=
0B
0G
#5000000
1!
1+
18
1=
1B
1G
#6000000
0!
0+
08
0=
0B
0G
#7000000
1!
1+
18
1=
1B
1G
#8000000
0!
0+
08
0=
0B
0G
#9000000
1!
1+
18
1=
1B
1G
#10000000
0!
0+
08
0=
0B
0G
#11000000
1!
1+
18
1=
1B
1G
#12000000
0!
0+
08
0=
0B
0G
#13000000
1!
1+
18
1=
1B
1G
#14000000
0!
0+
08
0=
0B
0G
#15000000
1!
1+
18
1=
1B
1G
#16000000
0!
0+
08
0=
0B
0G
#17000000
1!
1+
18
1=
1B
1G
#18000000
0!
0+
08
0=
0B
0G
#19000000
1!
1+
18
1=
1B
1G
#20000000
0!
0"
1#
0+
0,
1-
08
09
0=
0>
0B
0C
0G
0H
#21000000
1!
1+
b1000 4
18
1:
1=
1B
1G
#22000000
0!
0+
08
0=
0B
0G
#23000000
1!
1+
18
b0001 <
1=
1B
1G
#24000000
0!
0+
08
0=
0B
0G
#25000000
1!
b0001 (
1+
b0001 2
18
1=
1B
1G
#26000000
0!
0+
08
0=
0B
0G
#27000000
1!
1+
18
1=
1B
1G
#28000000
0!
0+
08
0=
0B
0G
#29000000
1!
1+
18
1=
1B
1G
#30000000
0!
0+
08
0=
0B
0G
#31000000
1!
1+
18
1=
1B
1G
#32000000
0!
0+
08
0=
0B
0G
#33000000
1!
1+
18
1=
1B
1G
#34000000
0!
0+
08
0=
0B
0G
#35000000
1!
1+
18
1=
1B
1G
#36000000
0!
0+
08
0=
0B
0G
#37000000
1!
1+
18
1=
1B
1G
#38000000
0!
0+
08
0=
0B
0G
#39000000
1!
1+
18
1=
1B
1G
#40000000
0!
b01 %
b01 &
b0010 '
0+
b01 /
b01 0
b0010 1
b1 5
b1 7
08
0=
0B
0G
#41000000
1!
1+
b0100 4
18
0:
1=
1?
b0010 @
1B
1G
#42000000
0!
0+
08
0=
0B
0G
#43000000
1!
1+
18
1=
b0010 A
1B
1G
#44000000
0!
0+
08
0=
0B
0G
#45000000
1!
b0010 )
1+
b0010 3
18
1=
1B
1G
#46000000
0!
0+
08
0=
0B
0G
#47000000
1!
1+
18
1=
1B
1G
#48000000
0!
0+
08
0=
0B
0G
#49000000
1!
1+
18
1=
1B
1G
#50000000
0!
0+
08
0=
0B
0G
#51000000
1!
1+
18
1=
1B
1G
#52000000
0!
0+
08
0=
0B
0G
#53000000
1!
1+
18
1=
1B
1G
#54000000
0!
0+
08
0=
0B
0G
#55000000
1!
1+
18
1=
1B
1G
#56000000
0!
0+
08
0=
0B
0G
#57000000
1!
1+
18
1=
1B
1G
#58000000
0!
0+
08
0=
0B
0G
#59000000
1!
1+
18
1=
1B
1G
#60000000
0!
b10 $
b10 &
b0011 '
0+
b10 .
b10 0
b0011 1
b10 5
b10 6
08
0=
0B
0G
#61000000
1!
b0000 (
1+
b0000 2
b0010 4
18
1=
0?
1B
1D
b0011 E
1G
#62000000
0!
0+
08
0=
0B
0G
#63000000
1!
1+
18
1=
1B
b0011 F
1G
#64000000
0!
0+
08
0=
0B
0G
#65000000
1!
b0011 (
1+
b0011 2
18
1=
1B
1G
#66000000
0!
0+
08
0=
0B
0G
#67000000
1!
1+
18
1=
1B
1G
#68000000
0!
0+
08
0=
0B
0G
#69000000
1!
1+
18
1=
1B
1G
#70000000
0!
0+
08
0=
0B
0G
#71000000
1!
1+
18
1=
1B
1G
#72000000
0!
0+
08
0=
0B
0G
#73000000
1!
1+
18
1=
1B
1G
#74000000
0!
0+
08
0=
0B
0G
#75000000
1!
1+
18
1=
1B
1G
#76000000
0!
0+
08
0=
0B
0G
#77000000
1!
1+
18
1=
1B
1G
#78000000
0!
0+
08
0=
0B
0G
#79000000
1!
1+
18
1=
1B
1G
#80000000
0!
b11 %
b11 &
b0100 '
0+
b11 /
b11 0
b0100 1
b11 5
b11 7
08
0=
0B
0G
#81000000
1!
b0000 )
1+
b0000 3
b0000 4
18
1=
1B
0D
1G
b0100 J
#82000000
0!
0+
08
0=
0B
0G
#83000000
1!
1+
18
1=
1B
1G
#84000000
0!
0+
08
0=
0B
0G
#85000000
1!
1+
18
1=
1B
1G
#86000000
0!
0+
08
0=
0B
0G
#87000000
1!
1+
18
1=
1B
1G
#88000000
0!
0+
08
0=
0B
0G
#89000000
1!
1+
18
1=
1B
1G
#90000000
0!
0+
08
0=
0B
0G
#91000000
1!
1+
18
1=
1B
1G
#92000000
0!
0+
08
0=
0B
0G
#93000000
1!
1+
18
1=
1B
1G
#94000000
0!
0+
08
0=
0B
0G
#95000000
1!
1+
18
1=
1B
1G
#96000000
0!
0+
08
0=
0B
0G
#97000000
1!
1+
18
1=
1B
1G
#98000000
0!
0+
08
0=
0B
0G
#99000000
1!
1+
18
1=
1B
1G
#100000000
0!
0#
b00 $
b00 %
b00 &
0+
0-
b00 .
b00 /
b00 0
b0 5
b0 6
b0 7
08
0=
0B
0G
#101000000
1!
b0001 (
b0001 )
1+
b0001 2
b0001 3
18
b0100 ;
1=
1B
1G
#102000000
0!
0+
08
0=
0B
0G
#103000000
1!
1+
18
1=
1B
1G
#104000000
0!
0+
08
0=
0B
0G
#105000000
1!
1+
18
1=
1B
1G
#106000000
0!
0+
08
0=
0B
0G
#107000000
1!
1+
18
1=
1B
1G
#108000000
0!
0+
08
0=
0B
0G
#109000000
1!
1+
18
1=
1B
1G
#110000000
0!
0+
08
0=
0B
0G
#111000000
1!
1+
18
1=
1B
1G
#112000000
0!
0+
08
0=
0B
0G
#113000000
1!
1+
18
1=
1B
1G
#114000000
0!
0+
08
0=
0B
0G
#115000000
1!
1+
18
1=
1B
1G
#116000000
0!
0+
08
0=
0B
0G
#117000000
1!
1+
18
1=
1B
1G
#118000000
0!
0+
08
0=
0B
0G
#119000000
1!
1+
18
1=
1B
1G
#120000000
0!
1"
b10 $
b10 %
b1111 '
0+
1,
b10 .
b10 /
b1111 1
b10 6
b10 7
08
19
b0000 <
0=
1>
b0000 A
0B
1C
b0000 F
0G
1H
#121000000
1!
b0000 (
b0000 )
1+
b0000 2
b0000 3
18
b1111 ;
1=
1B
1G
#122000000
0!
0+
08
0=
0B
0G
#123000000
1!
1+
18
1=
1B
1G
#124000000
0!
0+
08
0=
0B
0G
#125000000
1!
1+
18
1=
1B
1G
#126000000
0!
0+
08
0=
0B
0G
#127000000
1!
1+
18
1=
1B
1G
#128000000
0!
0+
08
0=
0B
0G
#129000000
1!
1+
18
1=
1B
1G
#130000000
0!
0+
08
0=
0B
0G
#131000000
1!
1+
18
1=
1B
1G
#132000000
0!
0+
08
0=
0B
0G
#133000000
1!
1+
18
1=
1B
1G
#134000000
0!
0+
08
0=
0B
0G
#135000000
1!
1+
18
1=
1B
1G
#136000000
0!
0+
08
0=
0B
0G
#137000000
1!
1+
18
1=
1B
1G
#138000000
0!
0+
08
0=
0B
0G
#139000000
1!
1+
18
1=
1B
1G
#140000000
0!
0*
0+
08
0=
0B
0G
