Atividade 2/regfile.vcd
$date
  Sat Oct 16 12:18:16 2021
$end
$version
  GHDL v0
$end
$timescale
  1 fs
$end
$var reg 1 ! clock_in $end
$var reg 1 " reset_in $end
$var reg 1 # regwrite_in $end
$var reg 2 $ rr1_in[1:0] $end
$var reg 2 % rr2_in[1:0] $end
$var reg 2 & wr_in[1:0] $end
$var reg 4 ' d_in[3:0] $end
$var reg 4 ( q1_out[3:0] $end
$var reg 4 ) q2_out[3:0] $end
$var reg 1 * simulando $end
$scope module dut $end
$var reg 1 + clock $end
$var reg 1 , reset $end
$var reg 1 - regwrite $end
$var reg 2 . rr1[1:0] $end
$var reg 2 / rr2[1:0] $end
$var reg 2 0 wr[1:0] $end
$var reg 4 1 d[3:0] $end
$var reg 4 2 q1[3:0] $end
$var reg 4 3 q2[3:0] $end
$comment regs is not handled $end
$var integer 32 4 int_wr $end
$var integer 32 5 int_rr1 $end
$var integer 32 6 int_rr2 $end
$upscope $end
$enddefinitions $end
#0
0!
1"
0#
b00 $
b10 %
b00 &
b0001 '
b0000 (
b0000 )
1*
0+
1,
0-
b00 .
b10 /
b00 0
b0001 1
b0000 2
b0000 3
b0 4
b0 5
b10 6
#1000000
1!
1+
#2000000
0!
0+
#3000000
1!
1+
#4000000
0!
0+
#5000000
1!
1+
#6000000
0!
0+
#7000000
1!
1+
#8000000
0!
0+
#9000000
1!
1+
#10000000
0!
0+
#11000000
1!
1+
#12000000
0!
0+
#13000000
1!
1+
#14000000
0!
0+
#15000000
1!
1+
#16000000
0!
0+
#17000000
1!
1+
#18000000
0!
0+
#19000000
1!
1+
#20000000
0!
0"
1#
0+
0,
1-
#21000000
1!
1+
#22000000
0!
0+
#23000000
1!
b0001 (
1+
b0001 2
#24000000
0!
0+
#25000000
1!
1+
#26000000
0!
0+
#27000000
1!
1+
#28000000
0!
0+
#29000000
1!
1+
#30000000
0!
0+
#31000000
1!
1+
#32000000
0!
0+
#33000000
1!
1+
#34000000
0!
0+
#35000000
1!
1+
#36000000
0!
0+
#37000000
1!
1+
#38000000
0!
0+
#39000000
1!
1+
#40000000
0!
b01 %
b01 &
b0010 '
0+
b01 /
b01 0
b0010 1
b1 4
b1 6
#41000000
1!
1+
#42000000
0!
0+
#43000000
1!
b0010 )
1+
b0010 3
#44000000
0!
0+
#45000000
1!
1+
#46000000
0!
0+
#47000000
1!
1+
#48000000
0!
0+
#49000000
1!
1+
#50000000
0!
0+
#51000000
1!
1+
#52000000
0!
0+
#53000000
1!
1+
#54000000
0!
0+
#55000000
1!
1+
#56000000
0!
0+
#57000000
1!
1+
#58000000
0!
0+
#59000000
1!
1+
#60000000
0!
b10 $
b10 &
b0011 '
0+
b10 .
b10 0
b0011 1
b10 4
b10 5
#61000000
1!
b0000 (
1+
b0000 2
#62000000
0!
0+
#63000000
1!
b0011 (
1+
b0011 2
#64000000
0!
0+
#65000000
1!
1+
#66000000
0!
0+
#67000000
1!
1+
#68000000
0!
0+
#69000000
1!
1+
#70000000
0!
0+
#71000000
1!
1+
#72000000
0!
0+
#73000000
1!
1+
#74000000
0!
0+
#75000000
1!
1+
#76000000
0!
0+
#77000000
1!
1+
#78000000
0!
0+
#79000000
1!
1+
#80000000
0!
b11 %
b11 &
b0100 '
0+
b11 /
b11 0
b0100 1
b11 4
b11 6
#81000000
1!
b0000 )
1+
b0000 3
#82000000
0!
0+
#83000000
1!
1+
#84000000
0!
0+
#85000000
1!
1+
#86000000
0!
0+
#87000000
1!
1+
#88000000
0!
0+
#89000000
1!
1+
#90000000
0!
0+
#91000000
1!
1+
#92000000
0!
0+
#93000000
1!
1+
#94000000
0!
0+
#95000000
1!
1+
#96000000
0!
0+
#97000000
1!
1+
#98000000
0!
0+
#99000000
1!
1+
#100000000
0!
0#
b00 $
b00 %
b00 &
0+
0-
b00 .
b00 /
b00 0
b0 4
b0 5
b0 6
#101000000
1!
b0001 (
b0001 )
1+
b0001 2
b0001 3
#102000000
0!
0+
#103000000
1!
1+
#104000000
0!
0+
#105000000
1!
1+
#106000000
0!
0+
#107000000
1!
1+
#108000000
0!
0+
#109000000
1!
1+
#110000000
0!
0+
#111000000
1!
1+
#112000000
0!
0+
#113000000
1!
1+
#114000000
0!
0+
#115000000
1!
1+
#116000000
0!
0+
#117000000
1!
1+
#118000000
0!
0+
#119000000
1!
1+
#120000000
0!
1"
b10 $
b10 %
b1111 '
0+
1,
b10 .
b10 /
b1111 1
b10 5
b10 6
#121000000
1!
b0000 (
b0000 )
1+
b0000 2
b0000 3
#122000000
0!
0+
#123000000
1!
1+
#124000000
0!
0+
#125000000
1!
1+
#126000000
0!
0+
#127000000
1!
1+
#128000000
0!
0+
#129000000
1!
1+
#130000000
0!
0+
#131000000
1!
1+
#132000000
0!
0+
#133000000
1!
1+
#134000000
0!
0+
#135000000
1!
1+
#136000000
0!
0+
#137000000
1!
1+
#138000000
0!
0+
#139000000
1!
1+
#140000000
0!
0*
0+
