Atividade 3/calc.vcd
$date
  Sat Oct 16 17:51:07 2021
$end
$version
  GHDL v0
$end
$timescale
  1 fs
$end
$var reg 1 ! clock_in $end
$var reg 1 " reset_in $end
$var reg 17 # instruction_in[16:0] $end
$var reg 16 $ q1_out[15:0] $end
$var reg 1 % simulando $end
$scope module dut $end
$var reg 1 & clock $end
$var reg 1 ' reset $end
$var reg 17 ( instruction[16:0] $end
$var reg 16 ) q1[15:0] $end
$var reg 16 * q1_out[15:0] $end
$var reg 16 + q2_out[15:0] $end
$var reg 16 , resultado[15:0] $end
$scope module bancoderegs $end
$var reg 1 - clock $end
$var reg 1 . reset $end
$var reg 1 / regwrite $end
$var reg 5 0 rr1[4:0] $end
$var reg 5 1 rr2[4:0] $end
$var reg 5 2 wr[4:0] $end
$var reg 16 3 d[15:0] $end
$var reg 16 4 q1[15:0] $end
$var reg 16 5 q2[15:0] $end
$comment regs is not handled $end
$upscope $end
$upscope $end
$enddefinitions $end
#0
0!
0"
b00000100000100001 #
b0000000000000000 $
1%
0&
0'
b00000100000100001 (
b0000000000000000 )
b0000000000000000 *
b0000000000000000 +
b0000000000000000 ,
0-
0.
1/
b00010 0
b00001 1
b00001 2
b0000000000000000 3
b0000000000000000 4
b0000000000000000 5
#1000000
1!
1&
1-
#2000000
0!
b01001000001100011 #
0&
b01001000001100011 (
0-
b00100 0
b00011 1
b00011 2
#3000000
1!
b0000000000000100 $
1&
b0000000000000100 )
b0000000000000100 ,
1-
b0000000000000100 3
#4000000
0!
b00000100001100000 #
0&
b00000100001100000 (
0-
b00010 0
b00000 2
#5000000
1!
b0000000000000000 $
1&
b0000000000000000 )
b0000000000000000 ,
1-
b0000000000000000 3
#6000000
0!
b10000010000000010 #
0&
b10000010000000010 (
b0000000000000100 +
0-
b00001 0
b00000 1
b00010 2
b0000000000000100 5
#7000000
1!
b0000000000000100 $
1&
b0000000000000100 )
b0000000000000100 ,
1-
b0000000000000100 3
#8000000
0!
b11000110000000100 #
0&
b11000110000000100 (
0-
b00011 0
b00100 2
#9000000
1!
b0000000000000001 $
1&
b0000000000000001 )
b0000000000000001 ,
1-
b0000000000000001 3
#10000000
0!
1"
b00110110001000001 #
0&
1'
b00110110001000001 (
b0000000000000000 +
0-
1.
b11011 0
b00010 1
b00001 2
b0000000000000000 5
#11000000
1!
b0000000000000000 $
1&
b0000000000000000 )
b0000000000000000 ,
1-
b0000000000000000 3
#12000000
0!
0%
0&
0-
