Atividade 3/calc.vcd
$date
  Mon Oct 18 17:27:18 2021
$end
$version
  GHDL v0
$end
$timescale
  1 fs
$end
$var reg 1 ! clock_in $end
$var reg 1 " reset_in $end
$var reg 17 # instruction_in[16:0] $end
$var reg 16 $ q1_out[15:0] $end
$var reg 1 % simulando $end
$scope module dut $end
$var reg 1 & clock $end
$var reg 1 ' reset $end
$var reg 17 ( instruction[16:0] $end
$var reg 16 ) q1[15:0] $end
$comment regs is not handled $end
$var reg 2 * opcode[1:0] $end
$var integer 32 + oper1 $end
$var integer 32 , oper2 $end
$var integer 32 - dest $end
$var reg 16 . q_oper1[15:0] $end
$var reg 16 / q_oper2[15:0] $end
$var integer 32 0 imediato $end
$upscope $end
$enddefinitions $end
#0
0!
0"
b01000100000100001 #
b0000000000000000 $
1%
0&
0'
b01000100000100001 (
b0000000000000000 )
b01 *
b1 +
b10 ,
b1 -
b0000000000000000 .
b0000000000000000 /
b10 0
#1000000
1!
b0000000000000010 $
1&
b0000000000000010 )
b0000000000000010 .
#2000000
0!
b01001000001100011 #
b0000000000000000 $
0&
b01001000001100011 (
b0000000000000000 )
b11 +
b100 ,
b11 -
b0000000000000000 .
b100 0
#3000000
1!
b0000000000000100 $
1&
b0000000000000100 )
b0000000000000100 .
#4000000
0!
b00000110000100000 #
b0000000000000010 $
0&
b00000110000100000 (
b0000000000000010 )
b00 *
b1 +
b11 ,
b0 -
b0000000000000010 .
b0000000000000100 /
b11 0
#5000000
1!
1&
#6000000
0!
b10000010000000010 #
b0000000000000110 $
0&
b10000010000000010 (
b0000000000000110 )
b10 *
b0 +
b1 ,
b10 -
b0000000000000110 .
b0000000000000010 /
b1 0
#7000000
1!
1&
#8000000
0!
b01000000001000010 #
b0000000000000100 $
0&
b01000000001000010 (
b0000000000000100 )
b01 *
b10 +
b0 ,
b0000000000000100 .
b0000000000000110 /
b0 0
#9000000
1!
1&
#10000000
0!
b11000110000000100 #
b0000000000000110 $
0&
b11000110000000100 (
b0000000000000110 )
b11 *
b0 +
b11 ,
b100 -
b0000000000000110 .
b0000000000000100 /
b11 0
#11000000
1!
1&
#12000000
0!
b01000000010000100 #
b0000000000000011 $
0&
b01000000010000100 (
b0000000000000011 )
b01 *
b100 +
b0 ,
b0000000000000011 .
b0000000000000110 /
b0 0
#13000000
1!
1&
#14000000
0!
b01110110000000101 #
b0000000000000110 $
0&
b01110110000000101 (
b0000000000000110 )
b0 +
b11011 ,
b101 -
b0000000000000110 .
b0000000000000000 /
b11111111111111111111111111111011 0
#15000000
1!
1&
#16000000
0!
b01000000010100101 #
b0000000000000001 $
0&
b01000000010100101 (
b0000000000000001 )
b101 +
b0 ,
b0000000000000001 .
b0000000000000110 /
b0 0
#17000000
1!
1&
#18000000
0!
b11110110001000110 #
b0000000000000100 $
0&
b11110110001000110 (
b0000000000000100 )
b11 *
b10 +
b11011 ,
b110 -
b0000000000000100 .
b0000000000000000 /
b11111111111111111111111111111011 0
#19000000
1!
1&
#20000000
0!
b01000000011000110 #
b0000000000001001 $
0&
b01000000011000110 (
b0000000000001001 )
b01 *
b110 +
b0 ,
b0000000000001001 .
b0000000000000110 /
b0 0
#21000000
1!
1&
#22000000
0!
1"
b00110110001000001 #
b0000000000000100 $
0&
1'
b00110110001000001 (
b0000000000000100 )
b00 *
b10 +
b11011 ,
b1 -
b0000000000000100 .
b0000000000000000 /
b11111111111111111111111111111011 0
#23000000
1!
b0000000000000000 $
1&
b0000000000000000 )
b0000000000000000 .
#24000000
0!
0%
0&
