Atividade 3/calc.vcd
$date
  Sun Oct 17 00:30:50 2021
$end
$version
  GHDL v0
$end
$timescale
  1 fs
$end
$var reg 1 ! clock_in $end
$var reg 1 " reset_in $end
$var reg 17 # instruction_in[16:0] $end
$var reg 16 $ q1_out[15:0] $end
$var reg 1 % simulando $end
$scope module dut $end
$var reg 1 & clock $end
$var reg 1 ' reset $end
$var reg 17 ( instruction[16:0] $end
$var reg 16 ) q1[15:0] $end
$var reg 1 * clock_n $end
$var reg 16 + oper1[15:0] $end
$var reg 16 , roper2[15:0] $end
$var reg 16 - resultado[15:0] $end
$scope module bancoderegs $end
$var reg 1 . clock $end
$var reg 1 / reset $end
$var reg 1 0 regwrite $end
$var reg 5 1 rr1[4:0] $end
$var reg 5 2 rr2[4:0] $end
$var reg 5 3 wr[4:0] $end
$var reg 16 4 d[15:0] $end
$var reg 16 5 q1[15:0] $end
$var reg 16 6 q2[15:0] $end
$comment regs is not handled $end
$upscope $end
$upscope $end
$enddefinitions $end
#0
0!
0"
b01000100000100001 #
b0000000000000000 $
1%
0&
0'
b01000100000100001 (
b0000000000000000 )
1*
b0000000000000000 +
b0000000000000000 ,
b0000000000000000 -
1.
0/
10
b00010 1
b00001 2
b00001 3
b0000000000000000 4
b0000000000000000 5
b0000000000000000 6
#1000000
1!
1&
b0000000000000010 -
b0000000000000010 4
#2000000
0!
b01001000001100011 #
0&
b01001000001100011 (
b00100 1
b00011 2
b00011 3
#3000000
1!
1&
b0000000000000100 -
b0000000000000100 4
#4000000
0!
b00000110000100000 #
0&
b00000110000100000 (
b00011 1
b00001 2
b00000 3
#5000000
1!
1&
b0000000000000000 -
b0000000000000000 4
#6000000
0!
b10000010000000010 #
0&
b10000010000000010 (
b00001 1
b00000 2
b00010 3
#7000000
1!
1&
#8000000
0!
b01000000001000010 #
0&
b01000000001000010 (
b00000 1
b00010 2
#9000000
1!
1&
#10000000
0!
b11000110000000100 #
0&
b11000110000000100 (
b00011 1
b00000 2
b00100 3
#11000000
1!
1&
b1111111111111101 -
b1111111111111101 4
#12000000
0!
b01000000010000100 #
0&
b01000000010000100 (
b00000 1
b00100 2
#13000000
1!
1&
b0000000000000000 -
b0000000000000000 4
#14000000
0!
b01110110000000101 #
0&
b01110110000000101 (
b11011 1
b00000 2
b00101 3
#15000000
1!
1&
b1111111111111011 -
b1111111111111011 4
#16000000
0!
b01000000010100101 #
0&
b01000000010100101 (
b00000 1
b00101 2
#17000000
1!
1&
b0000000000000000 -
b0000000000000000 4
#18000000
0!
b11110110001000110 #
0&
b11110110001000110 (
b11011 1
b00010 2
b00110 3
#19000000
1!
1&
b0000000000000101 -
b0000000000000101 4
#20000000
0!
b01000000011000110 #
0&
b01000000011000110 (
b00000 1
b00110 2
#21000000
1!
1&
b0000000000000000 -
b0000000000000000 4
#22000000
0!
1"
b00110110001000001 #
0&
1'
b00110110001000001 (
1/
b11011 1
b00010 2
b00001 3
#23000000
1!
1&
#24000000
0!
0%
0&
